weird.vcd
$date
	Thu Jan 15 10:31:02 2026
$end
$version
	Icarus Verilog
$end
$timescale
	10ns
$end
$scope module app_tb $end
$var wire 1 ! oSDA $end
$var wire 1 " oLED $end
$var reg 1 # iCLK $end
$var reg 1 $ iSCL $end
$var reg 1 % iSDA $end
$scope module dut $end
$var wire 1 # iCLK $end
$var wire 1 $ iSCL $end
$var wire 1 % iSDA $end
$var parameter 32 & ACK $end
$var parameter 32 ' DATA $end
$var parameter 32 ( IDLE $end
$var parameter 32 ) START $end
$var parameter 32 * STOP $end
$var reg 1 + ack $end
$var reg 7 , addr [6:0] $end
$var reg 4 - i [3:0] $end
$var reg 7 . mem [6:0] $end
$var reg 1 " oLED $end
$var reg 1 ! oSDA $end
$var reg 1 / rw $end
$var reg 3 0 state [2:0] $end
$upscope $end
$scope begin $ivl_for_loop0 $end
$var integer 32 1 i [31:0] $end
$upscope $end
$upscope $end
$enddefinitions $end
$comment Show the parameter values. $end
$dumpall
b100 *
b1 )
b0 (
b10 '
b11 &
$end
#0
$dumpvars
bx 1
b0 0
0/
b0 .
b0 -
b1010101 ,
1+
1%
x$
1#
0"
z!
$end
#2
0#
#4
1#
#6
0#
#8
1#
#10
0#
#12
1#
#14
0#
#16
1#
#18
0#
#20
1#
#22
0#
#24
1#
#26
0#
#28
1#
#30
0#
#32
1#
#34
0#
#36
1#
#38
0#
#40
1#
#42
0#
#44
1#
#46
0#
#48
1#
#50
0#
#52
1#
#54
0#
#56
1#
#58
0#
#60
1#
#62
0#
#64
1#
#66
0#
#68
1#
#70
0#
#72
1#
#74
0#
#76
1#
#78
0#
#80
1#
#82
0#
#84
1#
#86
0#
#88
1#
#90
0#
#92
1#
#94
0#
#96
1#
#98
0#
#100
1#
#102
0#
#104
1#
#106
0#
#108
1#
#110
0#
#112
1#
#114
0#
#116
1#
#118
0#
#120
1#
#122
0#
#124
1#
#126
0#
#128
1#
#130
0#
#132
1#
#134
0#
#136
1#
#138
0#
#140
1#
#142
0#
#144
1#
#146
0#
#148
1#
#150
0#
#152
1#
#154
0#
#156
1#
#158
0#
#160
1#
#162
0#
#164
1#
#166
0#
#168
1#
#170
0#
#172
1#
#174
0#
#176
1#
#178
0#
#180
1#
#182
0#
#184
1#
#186
0#
#188
1#
#190
0#
#192
1#
#194
0#
#196
1#
#198
0#
#200
1#
#202
0#
#204
1#
#206
0#
#208
1#
#210
0#
#212
1#
#214
0#
#216
1#
#218
0#
#220
1#
#222
0#
#224
1#
#226
0#
#228
1#
#230
0#
#232
1#
#234
0#
#236
1#
#238
0#
#240
1#
#242
0#
#244
1#
#246
0#
#248
1#
#250
0#
#252
1#
#254
0#
#256
1#
#258
0#
#260
1#
#262
0#
#264
1#
#266
0#
#268
1#
#270
0#
#272
1#
#274
0#
#276
1#
#278
0#
#280
1#
#282
0#
#284
1#
#286
0#
#288
1#
#290
0#
#292
1#
#294
0#
#296
1#
#298
0#
#300
1#
#302
0#
#304
1#
#306
0#
#308
1#
#310
0#
#312
1#
#314
0#
#316
1#
#318
0#
#320
1#
#322
0#
#324
1#
#326
0#
#328
1#
#330
0#
#332
1#
#334
0#
#336
1#
#338
0#
#340
1#
#342
0#
#344
1#
#346
0#
#348
1#
#350
0#
#352
1#
#354
0#
#356
1#
#358
0#
#360
1#
#362
0#
#364
1#
#366
0#
#368
1#
#370
0#
#372
1#
#374
0#
#376
1#
#378
0#
#380
1#
#382
0#
#384
1#
#386
0#
#388
1#
#390
0#
#392
1#
#394
0#
#396
1#
#398
0#
#400
1#
#402
0#
#404
1#
#406
0#
#408
1#
#410
0#
#412
1#
#414
0#
#416
1#
#418
0#
#420
1#
#422
0#
#424
1#
#426
0#
#428
1#
#430
0#
#432
1#
#434
0#
#436
1#
#438
0#
#440
1#
#442
0#
#444
1#
#446
0#
#448
1#
#450
0#
#452
1#
#454
0#
#456
1#
#458
0#
#460
1#
#462
0#
#464
1#
#466
0#
#468
1#
#470
0#
#472
1#
#474
0#
#476
1#
#478
0#
#480
1#
#482
0#
#484
1#
#486
0#
#488
1#
#490
0#
#492
1#
#494
0#
#496
1#
#498
0#
#500
0%
1#
#502
0#
#504
1#
#506
0#
#508
1#
#510
0#
#512
1#
#514
0#
#516
1#
#518
0#
#520
1#
#522
0#
#524
1#
#526
0#
#528
1#
#530
0#
#532
1#
#534
0#
#536
1#
#538
0#
#540
1#
#542
0#
#544
1#
#546
0#
#548
1#
#550
0#
#552
1#
#554
0#
#556
1#
#558
0#
#560
1#
#562
0#
#564
1#
#566
0#
#568
1#
#570
0#
#572
1#
#574
0#
#576
1#
#578
0#
#580
1#
#582
0#
#584
1#
#586
0#
#588
1#
#590
0#
#592
1#
#594
0#
#596
1#
#598
0#
#600
1#
#602
0#
#604
1#
#606
0#
#608
1#
#610
0#
#612
1#
#614
0#
#616
1#
#618
0#
#620
1#
#622
0#
#624
1#
#626
0#
#628
1#
#630
0#
#632
1#
#634
0#
#636
1#
#638
0#
#640
1#
#642
0#
#644
1#
#646
0#
#648
1#
#650
0#
#652
1#
#654
0#
#656
1#
#658
0#
#660
1#
#662
0#
#664
1#
#666
0#
#668
1#
#670
0#
#672
1#
#674
0#
#676
1#
#678
0#
#680
1#
#682
0#
#684
1#
#686
0#
#688
1#
#690
0#
#692
1#
#694
0#
#696
1#
#698
0#
#700
1#
#702
0#
#704
1#
#706
0#
#708
1#
#710
0#
#712
1#
#714
0#
#716
1#
#718
0#
#720
1#
#722
0#
#724
1#
#726
0#
#728
1#
#730
0#
#732
1#
#734
0#
#736
1#
#738
0#
#740
1#
#742
0#
#744
1#
#746
0#
#748
1#
#750
0$
0#
#752
1#
#754
0#
#756
1#
#758
0#
#760
1#
#762
0#
#764
1#
#766
0#
#768
1#
#770
0#
#772
1#
#774
0#
#776
1#
#778
0#
#780
1#
#782
0#
#784
1#
#786
0#
#788
1#
#790
0#
#792
1#
#794
0#
#796
1#
#798
0#
#800
1#
#802
0#
#804
1#
#806
0#
#808
1#
#810
0#
#812
1#
#814
0#
#816
1#
#818
0#
#820
1#
#822
0#
#824
1#
#826
0#
#828
1#
#830
0#
#832
1#
#834
0#
#836
1#
#838
0#
#840
1#
#842
0#
#844
1#
#846
0#
#848
1#
#850
0#
#852
1#
#854
0#
#856
1#
#858
0#
#860
1#
#862
0#
#864
1#
#866
0#
#868
1#
#870
0#
#872
1#
#874
0#
#876
1#
#878
0#
#880
1#
#882
0#
#884
1#
#886
0#
#888
1#
#890
0#
#892
1#
#894
0#
#896
1#
#898
0#
#900
1#
#902
0#
#904
1#
#906
0#
#908
1#
#910
0#
#912
1#
#914
0#
#916
1#
#918
0#
#920
1#
#922
0#
#924
1#
#926
0#
#928
1#
#930
0#
#932
1#
#934
0#
#936
1#
#938
0#
#940
1#
#942
0#
#944
1#
#946
0#
#948
1#
#950
0#
#952
1#
#954
0#
#956
1#
#958
0#
#960
1#
#962
0#
#964
1#
#966
0#
#968
1#
#970
0#
#972
1#
#974
0#
#976
1#
#978
0#
#980
1#
#982
0#
#984
1#
#986
0#
#988
1#
#990
0#
#992
1#
#994
0#
#996
1#
#998
0#
#1000
1%
1#
b0 1
#1002
0#
#1004
1#
#1006
0#
#1008
1#
#1010
0#
#1012
1#
#1014
0#
#1016
1#
#1018
0#
#1020
1#
#1022
0#
#1024
1#
#1026
0#
#1028
1#
#1030
0#
#1032
1#
#1034
0#
#1036
1#
#1038
0#
#1040
1#
#1042
0#
#1044
1#
#1046
0#
#1048
1#
#1050
0#
#1052
1#
#1054
0#
#1056
1#
#1058
0#
#1060
1#
#1062
0#
#1064
1#
#1066
0#
#1068
1#
#1070
0#
#1072
1#
#1074
0#
#1076
1#
#1078
0#
#1080
1#
#1082
0#
#1084
1#
#1086
0#
#1088
1#
#1090
0#
#1092
1#
#1094
0#
#1096
1#
#1098
0#
#1100
1#
#1102
0#
#1104
1#
#1106
0#
#1108
1#
#1110
0#
#1112
1#
#1114
0#
#1116
1#
#1118
0#
#1120
1#
#1122
0#
#1124
1#
#1126
0#
#1128
1#
#1130
0#
#1132
1#
#1134
0#
#1136
1#
#1138
0#
#1140
1#
#1142
0#
#1144
1#
#1146
0#
#1148
1#
#1150
0#
#1152
1#
#1154
0#
#1156
1#
#1158
0#
#1160
1#
#1162
0#
#1164
1#
#1166
0#
#1168
1#
#1170
0#
#1172
1#
#1174
0#
#1176
1#
#1178
0#
#1180
1#
#1182
0#
#1184
1#
#1186
0#
#1188
1#
#1190
0#
#1192
1#
#1194
0#
#1196
1#
#1198
0#
#1200
1#
#1202
0#
#1204
1#
#1206
0#
#1208
1#
#1210
0#
#1212
1#
#1214
0#
#1216
1#
#1218
0#
#1220
1#
#1222
0#
#1224
1#
#1226
0#
#1228
1#
#1230
0#
#1232
1#
#1234
0#
#1236
1#
#1238
0#
#1240
1#
#1242
0#
#1244
1#
#1246
0#
#1248
1#
#1250
1$
0#
#1252
1#
#1254
0#
#1256
1#
#1258
0#
#1260
1#
#1262
0#
#1264
1#
#1266
0#
#1268
1#
#1270
0#
#1272
1#
#1274
0#
#1276
1#
#1278
0#
#1280
1#
#1282
0#
#1284
1#
#1286
0#
#1288
1#
#1290
0#
#1292
1#
#1294
0#
#1296
1#
#1298
0#
#1300
1#
#1302
0#
#1304
1#
#1306
0#
#1308
1#
#1310
0#
#1312
1#
#1314
0#
#1316
1#
#1318
0#
#1320
1#
#1322
0#
#1324
1#
#1326
0#
#1328
1#
#1330
0#
#1332
1#
#1334
0#
#1336
1#
#1338
0#
#1340
1#
#1342
0#
#1344
1#
#1346
0#
#1348
1#
#1350
0#
#1352
1#
#1354
0#
#1356
1#
#1358
0#
#1360
1#
#1362
0#
#1364
1#
#1366
0#
#1368
1#
#1370
0#
#1372
1#
#1374
0#
#1376
1#
#1378
0#
#1380
1#
#1382
0#
#1384
1#
#1386
0#
#1388
1#
#1390
0#
#1392
1#
#1394
0#
#1396
1#
#1398
0#
#1400
1#
#1402
0#
#1404
1#
#1406
0#
#1408
1#
#1410
0#
#1412
1#
#1414
0#
#1416
1#
#1418
0#
#1420
1#
#1422
0#
#1424
1#
#1426
0#
#1428
1#
#1430
0#
#1432
1#
#1434
0#
#1436
1#
#1438
0#
#1440
1#
#1442
0#
#1444
1#
#1446
0#
#1448
1#
#1450
0#
#1452
1#
#1454
0#
#1456
1#
#1458
0#
#1460
1#
#1462
0#
#1464
1#
#1466
0#
#1468
1#
#1470
0#
#1472
1#
#1474
0#
#1476
1#
#1478
0#
#1480
1#
#1482
0#
#1484
1#
#1486
0#
#1488
1#
#1490
0#
#1492
1#
#1494
0#
#1496
1#
#1498
0#
#1500
1#
#1502
0#
#1504
1#
#1506
0#
#1508
1#
#1510
0#
#1512
1#
#1514
0#
#1516
1#
#1518
0#
#1520
1#
#1522
0#
#1524
1#
#1526
0#
#1528
1#
#1530
0#
#1532
1#
#1534
0#
#1536
1#
#1538
0#
#1540
1#
#1542
0#
#1544
1#
#1546
0#
#1548
1#
#1550
0#
#1552
1#
#1554
0#
#1556
1#
#1558
0#
#1560
1#
#1562
0#
#1564
1#
#1566
0#
#1568
1#
#1570
0#
#1572
1#
#1574
0#
#1576
1#
#1578
0#
#1580
1#
#1582
0#
#1584
1#
#1586
0#
#1588
1#
#1590
0#
#1592
1#
#1594
0#
#1596
1#
#1598
0#
#1600
1#
#1602
0#
#1604
1#
#1606
0#
#1608
1#
#1610
0#
#1612
1#
#1614
0#
#1616
1#
#1618
0#
#1620
1#
#1622
0#
#1624
1#
#1626
0#
#1628
1#
#1630
0#
#1632
1#
#1634
0#
#1636
1#
#1638
0#
#1640
1#
#1642
0#
#1644
1#
#1646
0#
#1648
1#
#1650
0#
#1652
1#
#1654
0#
#1656
1#
#1658
0#
#1660
1#
#1662
0#
#1664
1#
#1666
0#
#1668
1#
#1670
0#
#1672
1#
#1674
0#
#1676
1#
#1678
0#
#1680
1#
#1682
0#
#1684
1#
#1686
0#
#1688
1#
#1690
0#
#1692
1#
#1694
0#
#1696
1#
#1698
0#
#1700
1#
#1702
0#
#1704
1#
#1706
0#
#1708
1#
#1710
0#
#1712
1#
#1714
0#
#1716
1#
#1718
0#
#1720
1#
#1722
0#
#1724
1#
#1726
0#
#1728
1#
#1730
0#
#1732
1#
#1734
0#
#1736
1#
#1738
0#
#1740
1#
#1742
0#
#1744
1#
#1746
0#
#1748
1#
#1750
0$
0#
#1752
1#
#1754
0#
#1756
1#
#1758
0#
#1760
1#
#1762
0#
#1764
1#
#1766
0#
#1768
1#
#1770
0#
#1772
1#
#1774
0#
#1776
1#
#1778
0#
#1780
1#
#1782
0#
#1784
1#
#1786
0#
#1788
1#
#1790
0#
#1792
1#
#1794
0#
#1796
1#
#1798
0#
#1800
1#
#1802
0#
#1804
1#
#1806
0#
#1808
1#
#1810
0#
#1812
1#
#1814
0#
#1816
1#
#1818
0#
#1820
1#
#1822
0#
#1824
1#
#1826
0#
#1828
1#
#1830
0#
#1832
1#
#1834
0#
#1836
1#
#1838
0#
#1840
1#
#1842
0#
#1844
1#
#1846
0#
#1848
1#
#1850
0#
#1852
1#
#1854
0#
#1856
1#
#1858
0#
#1860
1#
#1862
0#
#1864
1#
#1866
0#
#1868
1#
#1870
0#
#1872
1#
#1874
0#
#1876
1#
#1878
0#
#1880
1#
#1882
0#
#1884
1#
#1886
0#
#1888
1#
#1890
0#
#1892
1#
#1894
0#
#1896
1#
#1898
0#
#1900
1#
#1902
0#
#1904
1#
#1906
0#
#1908
1#
#1910
0#
#1912
1#
#1914
0#
#1916
1#
#1918
0#
#1920
1#
#1922
0#
#1924
1#
#1926
0#
#1928
1#
#1930
0#
#1932
1#
#1934
0#
#1936
1#
#1938
0#
#1940
1#
#1942
0#
#1944
1#
#1946
0#
#1948
1#
#1950
0#
#1952
1#
#1954
0#
#1956
1#
#1958
0#
#1960
1#
#1962
0#
#1964
1#
#1966
0#
#1968
1#
#1970
0#
#1972
1#
#1974
0#
#1976
1#
#1978
0#
#1980
1#
#1982
0#
#1984
1#
#1986
0#
#1988
1#
#1990
0#
#1992
1#
#1994
0#
#1996
1#
#1998
0#
#2000
1#
b1 1
#2002
0#
#2004
1#
#2006
0#
#2008
1#
#2010
0#
#2012
1#
#2014
0#
#2016
1#
#2018
0#
#2020
1#
#2022
0#
#2024
1#
#2026
0#
#2028
1#
#2030
0#
#2032
1#
#2034
0#
#2036
1#
#2038
0#
#2040
1#
#2042
0#
#2044
1#
#2046
0#
#2048
1#
#2050
0#
#2052
1#
#2054
0#
#2056
1#
#2058
0#
#2060
1#
#2062
0#
#2064
1#
#2066
0#
#2068
1#
#2070
0#
#2072
1#
#2074
0#
#2076
1#
#2078
0#
#2080
1#
#2082
0#
#2084
1#
#2086
0#
#2088
1#
#2090
0#
#2092
1#
#2094
0#
#2096
1#
#2098
0#
#2100
1#
#2102
0#
#2104
1#
#2106
0#
#2108
1#
#2110
0#
#2112
1#
#2114
0#
#2116
1#
#2118
0#
#2120
1#
#2122
0#
#2124
1#
#2126
0#
#2128
1#
#2130
0#
#2132
1#
#2134
0#
#2136
1#
#2138
0#
#2140
1#
#2142
0#
#2144
1#
#2146
0#
#2148
1#
#2150
0#
#2152
1#
#2154
0#
#2156
1#
#2158
0#
#2160
1#
#2162
0#
#2164
1#
#2166
0#
#2168
1#
#2170
0#
#2172
1#
#2174
0#
#2176
1#
#2178
0#
#2180
1#
#2182
0#
#2184
1#
#2186
0#
#2188
1#
#2190
0#
#2192
1#
#2194
0#
#2196
1#
#2198
0#
#2200
1#
#2202
0#
#2204
1#
#2206
0#
#2208
1#
#2210
0#
#2212
1#
#2214
0#
#2216
1#
#2218
0#
#2220
1#
#2222
0#
#2224
1#
#2226
0#
#2228
1#
#2230
0#
#2232
1#
#2234
0#
#2236
1#
#2238
0#
#2240
1#
#2242
0#
#2244
1#
#2246
0#
#2248
1#
#2250
1$
0#
